[2022-07-12 15:40:43,868] {taskinstance.py:1159} INFO - Dependencies all met for <TaskInstance: click_job.mr_op_table manual__2022-07-12T10:04:00.622586+00:00 [queued]>
[2022-07-12 15:40:43,878] {taskinstance.py:1159} INFO - Dependencies all met for <TaskInstance: click_job.mr_op_table manual__2022-07-12T10:04:00.622586+00:00 [queued]>
[2022-07-12 15:40:43,878] {taskinstance.py:1356} INFO - 
--------------------------------------------------------------------------------
[2022-07-12 15:40:43,878] {taskinstance.py:1357} INFO - Starting attempt 1 of 1
[2022-07-12 15:40:43,878] {taskinstance.py:1358} INFO - 
--------------------------------------------------------------------------------
[2022-07-12 15:40:43,895] {taskinstance.py:1377} INFO - Executing <Task(HiveOperator): mr_op_table> on 2022-07-12 10:04:00.622586+00:00
[2022-07-12 15:40:43,898] {standard_task_runner.py:52} INFO - Started process 19363 to run task
[2022-07-12 15:40:43,900] {standard_task_runner.py:79} INFO - Running: ['***', 'tasks', 'run', 'click_job', 'mr_op_table', 'manual__2022-07-12T10:04:00.622586+00:00', '--job-id', '165', '--raw', '--subdir', 'DAGS_FOLDER/dag_all_in_one.py', '--cfg-path', '/tmp/tmp1fhywkck', '--error-file', '/tmp/tmpm6i0mbvp']
[2022-07-12 15:40:43,901] {standard_task_runner.py:80} INFO - Job 165: Subtask mr_op_table
[2022-07-12 15:40:44,025] {task_command.py:370} INFO - Running <TaskInstance: click_job.mr_op_table manual__2022-07-12T10:04:00.622586+00:00 [running]> on host pc
[2022-07-12 15:40:44,077] {logging_mixin.py:115} WARNING - /home/hadoop/***_env/lib/python3.8/site-packages/sqlalchemy/sql/coercions.py:518 SAWarning: Coercing Subquery object into a select() for use in IN(); please pass a select() construct explicitly
[2022-07-12 15:40:44,084] {taskinstance.py:1569} INFO - Exporting the following env vars:
AIRFLOW_CTX_DAG_EMAIL=acchiever@gmail.com
AIRFLOW_CTX_DAG_OWNER=hadoop
AIRFLOW_CTX_DAG_ID=click_job
AIRFLOW_CTX_TASK_ID=mr_op_table
AIRFLOW_CTX_EXECUTION_DATE=2022-07-12T10:04:00.622586+00:00
AIRFLOW_CTX_TRY_NUMBER=1
AIRFLOW_CTX_DAG_RUN_ID=manual__2022-07-12T10:04:00.622586+00:00
[2022-07-12 15:40:44,086] {hive.py:136} INFO - Executing: use userdb;
#create external table click(UserID string,url string,action string,log_time timestamp,payment_method string,location string,sessionID string,log_date date) row format serde 'org.apache.hive.hcatalog.data.JsonSerDe' location 'hdfs://localhost:9000/user/hadoop/click';
create table if not exists mr_action_count(action string,count int) row format delimited fields terminated by '\t';
load data inpath "hdfs://localhost:9000/user/hadoop/click_output/part-r-00000" into table mr_action_count;

[2022-07-12 15:40:44,092] {base.py:68} INFO - Using connection ID 'hive_cli_default' for task execution.
[2022-07-12 15:40:44,093] {hive.py:154} INFO - Passing HiveConf: {'airflow.ctx.dag_email': 'acchiever@gmail.com', 'airflow.ctx.dag_owner': 'hadoop', 'airflow.ctx.dag_id': 'click_job', 'airflow.ctx.task_id': 'mr_op_table', 'airflow.ctx.execution_date': '2022-07-12T10:04:00.622586+00:00', 'airflow.ctx.try_number': '1', 'airflow.ctx.dag_run_id': 'manual__2022-07-12T10:04:00.622586+00:00'}
[2022-07-12 15:40:44,094] {hive.py:242} INFO - beeline -u "jdbc:hive2://localhost:10000/default" -n scott -p *** -hiveconf ***.ctx.dag_id=click_job -hiveconf ***.ctx.task_id=mr_op_table -hiveconf ***.ctx.execution_date=2022-07-12T10:04:00.622586+00:00 -hiveconf ***.ctx.try_number=1 -hiveconf ***.ctx.dag_run_id=manual__2022-07-12T10:04:00.622586+00:00 -hiveconf ***.ctx.dag_owner=hadoop -hiveconf ***.ctx.dag_email=acchiever@gmail.com -hiveconf mapred.job.name=Airflow HiveOperator task for pc.click_job.mr_op_table.2022-07-12T10:04:00.622586+00:00 -f /tmp/***_hiveop_70rp2g__/tmpud1s9jja
[2022-07-12 15:40:46,596] {hive.py:254} INFO - SLF4J: Class path contains multiple SLF4J bindings.
[2022-07-12 15:40:46,596] {hive.py:254} INFO - SLF4J: Found binding in [jar:file:/home/hadoop/hadoop/share/hadoop/common/lib/slf4j-log4j12-1.7.30.jar!/org/slf4j/impl/StaticLoggerBinder.class]
[2022-07-12 15:40:46,597] {hive.py:254} INFO - SLF4J: Found binding in [jar:file:/home/hadoop/hive/lib/log4j-slf4j-impl-2.17.1.jar!/org/slf4j/impl/StaticLoggerBinder.class]
[2022-07-12 15:40:46,597] {hive.py:254} INFO - SLF4J: See http://www.slf4j.org/codes.html#multiple_bindings for an explanation.
[2022-07-12 15:40:46,671] {hive.py:254} INFO - SLF4J: Actual binding is of type [org.slf4j.impl.Log4jLoggerFactory]
[2022-07-12 15:40:47,772] {hive.py:254} INFO - Connecting to jdbc:hive2://localhost:10000/default
[2022-07-12 15:40:48,121] {hive.py:254} INFO - Connected to: Apache Hive (version 3.1.3)
[2022-07-12 15:40:48,122] {hive.py:254} INFO - Driver: Hive JDBC (version 3.1.3)
[2022-07-12 15:40:48,122] {hive.py:254} INFO - Transaction isolation: TRANSACTION_REPEATABLE_READ
[2022-07-12 15:40:48,315] {hive.py:254} INFO - 0: jdbc:hive2://localhost:10000/default> No rows affected (0.165 seconds)
[2022-07-12 15:40:48,379] {hive.py:254} INFO - 0: jdbc:hive2://localhost:10000/default> No rows affected (0.048 seconds)
[2022-07-12 15:40:48,461] {hive.py:254} INFO - 0: jdbc:hive2://localhost:10000/default> 0: jdbc:hive2://localhost:10000/default> No rows affected (0.078 seconds)
[2022-07-12 15:40:48,790] {hive.py:254} INFO - 0: jdbc:hive2://localhost:10000/default> No rows affected (0.327 seconds)
[2022-07-12 15:40:48,828] {hive.py:254} INFO - 0: jdbc:hive2://localhost:10000/default> 0: jdbc:hive2://localhost:10000/default> 0: jdbc:hive2://localhost:10000/default> Closing: 0: jdbc:hive2://localhost:10000/default
[2022-07-12 15:40:48,878] {taskinstance.py:1395} INFO - Marking task as SUCCESS. dag_id=click_job, task_id=mr_op_table, execution_date=20220712T100400, start_date=20220712T101043, end_date=20220712T101048
[2022-07-12 15:40:48,907] {local_task_job.py:156} INFO - Task exited with return code 0
[2022-07-12 15:40:49,022] {local_task_job.py:273} INFO - 1 downstream tasks scheduled from follow-on schedule check
