[2022-06-25 14:04:32,926] {taskinstance.py:1159} INFO - Dependencies all met for <TaskInstance: hdfs_commands.copy_from_local manual__2022-06-25T08:33:58.053893+00:00 [queued]>
[2022-06-25 14:04:33,047] {taskinstance.py:1159} INFO - Dependencies all met for <TaskInstance: hdfs_commands.copy_from_local manual__2022-06-25T08:33:58.053893+00:00 [queued]>
[2022-06-25 14:04:33,047] {taskinstance.py:1356} INFO - 
--------------------------------------------------------------------------------
[2022-06-25 14:04:33,047] {taskinstance.py:1357} INFO - Starting attempt 1 of 1
[2022-06-25 14:04:33,047] {taskinstance.py:1358} INFO - 
--------------------------------------------------------------------------------
[2022-06-25 14:04:33,089] {taskinstance.py:1377} INFO - Executing <Task(BashOperator): copy_from_local> on 2022-06-25 08:33:58.053893+00:00
[2022-06-25 14:04:33,089] {base_task_runner.py:141} INFO - Running on host: pc
[2022-06-25 14:04:33,089] {base_task_runner.py:142} INFO - Running: ['***', 'tasks', 'run', 'hdfs_commands', 'copy_from_local', 'manual__2022-06-25T08:33:58.053893+00:00', '--job-id', '53', '--raw', '--subdir', 'DAGS_FOLDER/dag_hadoop.py', '--cfg-path', '/tmp/tmpo1ivkafn', '--error-file', '/tmp/tmpx3pugphc']
[2022-06-25 14:04:34,309] {base_task_runner.py:123} INFO - Job 53: Subtask copy_from_local [[34m2022-06-25 14:04:34,309[0m] {[34mdagbag.py:[0m507} INFO[0m - Filling up the DagBag from /home/hadoop/***/dags/dag_hadoop.py[0m
[2022-06-25 14:04:34,390] {base_task_runner.py:123} INFO - Job 53: Subtask copy_from_local [[34m2022-06-25 14:04:34,387[0m] {[34mtask_command.py:[0m370} INFO[0m - Running <TaskInstance: hdfs_commands.copy_from_local manual__2022-06-25T08:33:58.053893+00:00 [running]> on host pc[0m
[2022-06-25 14:04:34,466] {logging_mixin.py:115} WARNING - /home/hadoop/***_env/lib/python3.8/site-packages/sqlalchemy/sql/coercions.py:518 SAWarning: Coercing Subquery object into a select() for use in IN(); please pass a select() construct explicitly
[2022-06-25 14:04:34,474] {taskinstance.py:1569} INFO - Exporting the following env vars:
AIRFLOW_CTX_DAG_OWNER=hadoop
AIRFLOW_CTX_DAG_ID=hdfs_commands
AIRFLOW_CTX_TASK_ID=copy_from_local
AIRFLOW_CTX_EXECUTION_DATE=2022-06-25T08:33:58.053893+00:00
AIRFLOW_CTX_TRY_NUMBER=1
AIRFLOW_CTX_DAG_RUN_ID=manual__2022-06-25T08:33:58.053893+00:00
[2022-06-25 14:04:34,474] {subprocess.py:62} INFO - Tmp dir root location: 
 /tmp
[2022-06-25 14:04:34,474] {subprocess.py:74} INFO - Running command: ['bash', '-c', 'hdfs dfs -copyFromLocal /home/hadoop/click_data/*.json /user/hadoop/click  ']
[2022-06-25 14:04:34,479] {subprocess.py:85} INFO - Output:
[2022-06-25 14:04:38,324] {subprocess.py:92} INFO - copyFromLocal: `/user/hadoop/click/click_datagen_25-06-2022_14h03m01s.json': File exists
[2022-06-25 14:04:38,761] {subprocess.py:96} INFO - Command exited with return code 1
[2022-06-25 14:04:38,770] {taskinstance.py:1889} ERROR - Task failed with exception
Traceback (most recent call last):
  File "/home/hadoop/airflow_env/lib/python3.8/site-packages/airflow/operators/bash.py", line 194, in execute
    raise AirflowException(
airflow.exceptions.AirflowException: Bash command failed. The command returned a non-zero exit code 1.
[2022-06-25 14:04:38,778] {taskinstance.py:1395} INFO - Marking task as FAILED. dag_id=hdfs_commands, task_id=copy_from_local, execution_date=20220625T083358, start_date=20220625T083432, end_date=20220625T083438
[2022-06-25 14:04:38,800] {base_task_runner.py:123} INFO - Job 53: Subtask copy_from_local Traceback (most recent call last):
[2022-06-25 14:04:38,800] {base_task_runner.py:123} INFO - Job 53: Subtask copy_from_local   File "/home/hadoop/***_env/bin/***", line 8, in <module>
[2022-06-25 14:04:38,800] {base_task_runner.py:123} INFO - Job 53: Subtask copy_from_local     sys.exit(main())
[2022-06-25 14:04:38,800] {base_task_runner.py:123} INFO - Job 53: Subtask copy_from_local   File "/home/hadoop/***_env/lib/python3.8/site-packages/***/__main__.py", line 38, in main
[2022-06-25 14:04:38,800] {base_task_runner.py:123} INFO - Job 53: Subtask copy_from_local     args.func(args)
[2022-06-25 14:04:38,800] {base_task_runner.py:123} INFO - Job 53: Subtask copy_from_local   File "/home/hadoop/***_env/lib/python3.8/site-packages/***/cli/cli_parser.py", line 51, in command
[2022-06-25 14:04:38,800] {base_task_runner.py:123} INFO - Job 53: Subtask copy_from_local     return func(*args, **kwargs)
[2022-06-25 14:04:38,800] {base_task_runner.py:123} INFO - Job 53: Subtask copy_from_local   File "/home/hadoop/***_env/lib/python3.8/site-packages/***/utils/cli.py", line 99, in wrapper
[2022-06-25 14:04:38,800] {base_task_runner.py:123} INFO - Job 53: Subtask copy_from_local     return f(*args, **kwargs)
[2022-06-25 14:04:38,800] {base_task_runner.py:123} INFO - Job 53: Subtask copy_from_local   File "/home/hadoop/***_env/lib/python3.8/site-packages/***/cli/commands/task_command.py", line 376, in task_run
[2022-06-25 14:04:38,800] {base_task_runner.py:123} INFO - Job 53: Subtask copy_from_local     _run_task_by_selected_method(args, dag, ti)
[2022-06-25 14:04:38,800] {base_task_runner.py:123} INFO - Job 53: Subtask copy_from_local   File "/home/hadoop/***_env/lib/python3.8/site-packages/***/cli/commands/task_command.py", line 184, in _run_task_by_selected_method
[2022-06-25 14:04:38,800] {base_task_runner.py:123} INFO - Job 53: Subtask copy_from_local     _run_raw_task(args, ti)
[2022-06-25 14:04:38,800] {base_task_runner.py:123} INFO - Job 53: Subtask copy_from_local   File "/home/hadoop/***_env/lib/python3.8/site-packages/***/cli/commands/task_command.py", line 257, in _run_raw_task
[2022-06-25 14:04:38,800] {base_task_runner.py:123} INFO - Job 53: Subtask copy_from_local     ti._run_raw_task(
[2022-06-25 14:04:38,800] {base_task_runner.py:123} INFO - Job 53: Subtask copy_from_local   File "/home/hadoop/***_env/lib/python3.8/site-packages/***/utils/session.py", line 71, in wrapper
[2022-06-25 14:04:38,800] {base_task_runner.py:123} INFO - Job 53: Subtask copy_from_local     return func(*args, session=session, **kwargs)
[2022-06-25 14:04:38,800] {base_task_runner.py:123} INFO - Job 53: Subtask copy_from_local   File "/home/hadoop/***_env/lib/python3.8/site-packages/***/models/taskinstance.py", line 1451, in _run_raw_task
[2022-06-25 14:04:38,800] {base_task_runner.py:123} INFO - Job 53: Subtask copy_from_local     self._execute_task_with_callbacks(context, test_mode)
[2022-06-25 14:04:38,800] {base_task_runner.py:123} INFO - Job 53: Subtask copy_from_local   File "/home/hadoop/***_env/lib/python3.8/site-packages/***/models/taskinstance.py", line 1598, in _execute_task_with_callbacks
[2022-06-25 14:04:38,800] {base_task_runner.py:123} INFO - Job 53: Subtask copy_from_local     result = self._execute_task(context, task_orig)
[2022-06-25 14:04:38,800] {base_task_runner.py:123} INFO - Job 53: Subtask copy_from_local   File "/home/hadoop/***_env/lib/python3.8/site-packages/***/models/taskinstance.py", line 1659, in _execute_task
[2022-06-25 14:04:38,801] {base_task_runner.py:123} INFO - Job 53: Subtask copy_from_local     result = execute_callable(context=context)
[2022-06-25 14:04:38,801] {base_task_runner.py:123} INFO - Job 53: Subtask copy_from_local   File "/home/hadoop/***_env/lib/python3.8/site-packages/***/operators/bash.py", line 194, in execute
[2022-06-25 14:04:38,801] {base_task_runner.py:123} INFO - Job 53: Subtask copy_from_local     raise AirflowException(
[2022-06-25 14:04:38,801] {base_task_runner.py:123} INFO - Job 53: Subtask copy_from_local ***.exceptions.AirflowException: Bash command failed. The command returned a non-zero exit code 1.
[2022-06-25 14:04:39,212] {local_task_job.py:156} INFO - Task exited with return code 1
[2022-06-25 14:04:39,239] {local_task_job.py:273} INFO - 0 downstream tasks scheduled from follow-on schedule check
