[2022-06-24 17:32:39 +0530] [5459] [INFO] Starting gunicorn 20.1.0
[2022-06-24 17:32:39 +0530] [5459] [INFO] Listening at: http://0.0.0.0:8793 (5459)
[2022-06-24 17:32:39 +0530] [5459] [INFO] Using worker: sync
[2022-06-24 17:32:39 +0530] [5460] [INFO] Booting worker with pid: 5460
[2022-06-24 17:32:39 +0530] [5462] [INFO] Booting worker with pid: 5462
[2022-06-24 19:00:29 +0530] [5459] [INFO] Handling signal: term
[2022-06-24 19:00:29 +0530] [5460] [INFO] Worker exiting (pid: 5460)
[2022-06-24 19:00:29 +0530] [5462] [INFO] Worker exiting (pid: 5462)
[2022-06-24 19:00:29 +0530] [5459] [INFO] Shutting down: Master
